Let's work with binary search tree aka BST

+ <number>	Insert a node into tree with the key
- <number>	Remove a node with the key
? <number>	Ask if the tree contains a node with key
^         	Print the tree
<         	Print the minimum of the tree
>         	Print the maximum of the tree

At first need to initialize a root of the root.
Please write a key for it.

The tree containts the key 55

The tree DOESN'T containt the key 0

The tree containts the key 22

The minum of the tree is -1

The maximum of the tree is 74


         74

      66

         57

   55

         42

      33

22

         18

      15

         13

   12

      -1

End of inputs.
